Chapter 7 Data Transformation | Statistical Programming
…
Der Datensatz flights ist ein „Tibble“. Ein Tibble ist ein leicht angepasster Data Frame, der besser mit tidyverse zusammenarbeitet. Im Vergleich zu einem Data Frame ist bei einem Tibble die Ausgabe eines großen Datensatzes viel besser gelöst. Auch ist der Zugriff auf Teilbereiche der Daten mit Tibbles konsistenter und strenger: mehr Warnungen werden ausgegeben, wenn angesprochene Spalten nicht existieren.

“A concise, and fun, way to summarise the main differences is that tibbles are lazy and surly: they do less and complain more. You’ll see what that means as you work through this section.” (Wickham 2019b, Abschnitt 3.6)

Im Gegensatz zu einem Data Frame wird bei der Erzeugung eines Tibbles nicht automatisch ein character-Vektor in einen Faktor umgewandelt, was bei früheren R-Versionen der Fall war; siehe Abschnitt 5.3.1.

Mithilfe von as_tibble() kann ein Data Frame leicht in einen Tibble umgewandelt werden. Ein Tibble kann auch direkt mit tibble() erzeugt werden. Auf Tibbles werden wir später zurückkommen.

Die Ausgabe des Tibbles flights ist in der Tat recht übersichtlich:

flights

## # A tibble: 336,776 × 19
##     year month   day dep_time sched_dep_time dep_delay arr_time sched_arr_time
##    <int> <int> <int>    <int>          <int>     <dbl>    <int>          <int>
##  1  2013     1     1      517            515         2      830            819
##  2  2013     1     1      533            529         4      850            830
##  3  2013     1     1      542            540         2      923            850
##  4  2013     1     1      544            545        -1     1004           1022
##  5  2013     1     1      554            600        -6      812            837
##  6  2013     1     1      554            558        -4      740            728
##  7  2013     1     1      555            600        -5      913            854
##  8  2013     1     1      557            600        -3      709            723
##  9  2013     1     1      557            600        -3      838            846
## 10  2013     1     1      558            600        -2      753            745
## # ℹ 336,766 more rows
## # ℹ 11 more variables: arr_delay <dbl>, carrier <chr>, flight <int>,
## #   tailnum <chr>, origin <chr>, dest <chr>, air_time <dbl>, distance <dbl>,
## #   hour <dbl>, minute <dbl>, time_hour <dttm>
…
## [1] 3.02765

In komplexen Situationen kann der Pipe-Mechanismus die Lesbarkeit des Quelltextes deutlich erhöhen. Insbesondere in der tidyverse-Welt wird hiervon viel Gebrauch gemacht. Eine Ausnahme bildet ggplot2: es benutzt das gleiche Prinzip, nur wird dort leider + statt %>% benutzt!

7.2.7 Gruppierungen mit group_by()

Die Funktion group_by() und ihr Gegenstück ungroup() ist für sich aus gesehen nicht besonders nützlich. Erst im Zusammenspiel mit Funktionen wie summarize(), die die erstellten Gruppierungen berücksichtigen, entfalten sie ihr Potential. Wir wollen dies an einem Beispiel verdeutlichen. Aus Gründen der Übersichtlichkeit wollen wir hierbei nur einen Teil des Datensatzes flights benutzen:

fluege <- select(flights, month, day, contains("delay"))
fluege <- filter(fluege, !is.na(arr_delay), !is.na(dep_delay))
fluege

## # A tibble: 327,346 × 4
##    month   day dep_delay arr_delay
##    <int> <int>     <dbl>     <dbl>
##  1     1     1         2        11
##  2     1     1         4        20
##  3     1     1         2        33
##  4     1     1        -1       -18
##  5     1     1        -6       -25
##  6     1     1        -4        12
##  7     1     1        -5        19
##  8     1     1        -3       -14
##  9     1     1        -3        -8
## 10     1     1        -2         8
## # ℹ 327,336 more rows

Durch die beiden Filterbedingungen !is.na(arr_delay) und !is.na(dep_delay) schließen wir NA-Werte bei den Verspätungen aus.

Mithilfe des Pipe-Operators können wir stattdessen auch alternativ schreiben:

fluege <- flights %>%
  select(month, day, contains("delay")) %>%
  filter(!is.na(arr_delay), !is.na(dep_delay))

Als Nächstes wollen wir die Funktion group_by() auf fluege anwenden:

fluege_month <- group_by(fluege, month)
fluege_month

## # A tibble: 327,346 × 4
## # Groups:   month [12]
##    month   day dep_delay arr_delay
##    <int> <int>     <dbl>     <dbl>
##  1     1     1         2        11
##  2     1     1         4        20
##  3     1     1         2        33
##  4     1     1        -1       -18
##  5     1     1        -6       -25
##  6     1     1        -4        12
##  7     1     1        -5        19
##  8     1     1        -3       -14
##  9     1     1        -3        -8
## 10     1     1        -2         8
## # ℹ 327,336 more rows
…
## # A tibble: 1 × 1
##   delay
##   <dbl>
## 1  6.90

Möglich sind auch Gruppierungen nach mehreren Variablen. Dies zeigt das nächste Beispiel:

fluege_monthDay <- group_by(fluege, month, day)
summarize(fluege_monthDay, delay = mean(dep_delay))

## `summarise()` has grouped output by 'month'. You can override using the
## `.groups` argument.

## # A tibble: 365 × 3
## # Groups:   month [12]
##    month   day delay
##    <int> <int> <dbl>
##  1     1     1 11.4 
##  2     1     2 13.7 
##  3     1     3 10.9 
##  4     1     4  8.97
##  5     1     5  5.73
##  6     1     6  7.15
##  7     1     7  5.42
##  8     1     8  2.56
##  9     1     9  2.30
## 10     1    10  2.84
## # ℹ 355 more rows

Gruppierungen sind in Verbindung mit summarize() sehr nützlich, werden oft auch bei mutate() and filter() eingesetzt. Im nächsten Beispiel wird zu fluege_month eine zusätzliche Variable hinzugefügt, die in jeder Zeile die entsprechende monatliche durchschnittliche Verspätung bei der Ankunft angibt (vgl. summarize(fluege_month, delay = mean(arr_delay)), siehe oben):

fluege_month  %>%
   mutate(m_arr_delay = mean(arr_delay))

## # A tibble: 327,346 × 5
## # Groups:   month [12]
##    month   day dep_delay arr_delay m_arr_delay
##    <int> <int>     <dbl>     <dbl>       <dbl>
##  1     1     1         2        11        6.13
##  2     1     1         4        20        6.13
##  3     1     1         2        33        6.13
##  4     1     1        -1       -18        6.13
##  5     1     1        -6       -25        6.13
##  6     1     1        -4        12        6.13
##  7     1     1        -5        19        6.13
##  8     1     1        -3       -14        6.13
##  9     1     1        -3        -8        6.13
## 10     1     1        -2         8        6.13
## # ℹ 327,336 more rows

Entsprechend können wir die Gruppierung in Verbindung mit filter() nutzen:

fluege_month  %>%
   filter(mean(arr_delay) > 10)

## # A tibble: 109,952 × 4
## # Groups:   month [4]
##    month   day dep_delay arr_delay
##    <int> <int>     <dbl>     <dbl>
##  1    12     1        14         1
##  2    12     1        18         6
##  3    12     1        -7       -15
##  4    12     1         5       -19
##  5    12     1        -4        -5
##  6    12     1       -10       -22
##  7    12     1        -4       -21
##  8    12     1         1        -9
##  9    12     1       -11       -11
## 10    12     1       -10       -29
## # ℹ 109,942 more rows
…
