Chapter 7 Spezielle Themen und Fallstudien | Statistical Programming
…
Dieser Fallstudie liegt der Datensatz diamonds zugrunde (Wickham 2016). In einer Übung haben wir bereits Auffälligkeiten in der Verteilung der Preis-Variablen aufgedeckt. In dieser Fallstudie wollen wir nach Auffälligkeiten in den x-, y- und z-Variablen suchen und die gefundenen Werte im Datensatz kennzeichnen.

dd <- diamonds

Bearbeiten Sie folgende Aufgabe:

Fügen Sie ein weiteres Attribut nr dem Datensatz dd hinzu. Dieses Attribut soll das erste Attribut des Datensatzes dd sein und der Zeilennummer entsprechen (Hinweis: dplyr::relocate() (dplyr?)):

nr <- 1:nrow(diamonds)
dd$nr <- nr
dd <- dd %>% relocate(nr)

dd 

## # A tibble: 53,940 × 11
##       nr carat cut       color clarity depth table price     x     y     z
##    <int> <dbl> <ord>     <ord> <ord>   <dbl> <dbl> <int> <dbl> <dbl> <dbl>
##  1     1  0.23 Ideal     E     SI2      61.5    55   326  3.95  3.98  2.43
##  2     2  0.21 Premium   E     SI1      59.8    61   326  3.89  3.84  2.31
##  3     3  0.23 Good      E     VS1      56.9    65   327  4.05  4.07  2.31
##  4     4  0.29 Premium   I     VS2      62.4    58   334  4.2   4.23  2.63
##  5     5  0.31 Good      J     SI2      63.3    58   335  4.34  4.35  2.75
##  6     6  0.24 Very Good J     VVS2     62.8    57   336  3.94  3.96  2.48
##  7     7  0.24 Very Good I     VVS1     62.3    57   336  3.95  3.98  2.47
##  8     8  0.26 Very Good H     SI1      61.9    55   337  4.07  4.11  2.53
##  9     9  0.22 Fair      E     VS2      65.1    61   337  3.87  3.78  2.49
## 10    10  0.23 Very Good H     VS1      59.4    61   338  4     4.05  2.39
## # … with 53,930 more rows
## # ℹ Use `print(n = ...)` to see more rows
…
Zu Dokumentationszwecken speichern wir die fraglichen Datensätze ab und schreiben sie in eine CSV-Datei:

dd.na <- dd[!complete.cases(dd),]
dd.na

## # A tibble: 23 × 11
##       nr carat cut       color clarity depth table price     x     y     z
##    <int> <dbl> <ord>     <ord> <ord>   <dbl> <dbl> <int> <dbl> <dbl> <dbl>
##  1  2208  1    Premium   G     SI2      59.1    59  3142  6.55  6.48 NA   
##  2  2315  1.01 Premium   H     I1       58.1    59  3167  6.66  6.6  NA   
##  3  4792  1.1  Premium   G     SI2      63      59  3696  6.5   6.47 NA   
##  4  5472  1.01 Premium   F     SI2      59.2    58  3837  6.5   6.47 NA   
##  5 10168  1.5  Good      G     I1       64      61  4731  7.15  7.04 NA   
##  6 11183  1.07 Ideal     F     SI2      61.6    56  4954 NA     6.62 NA   
##  7 11964  1    Very Good H     VS2      63.3    53  5139 NA    NA    NA   
##  8 13602  1.15 Ideal     G     VS2      59.2    56  5564  6.88  6.83 NA   
##  9 15952  1.14 Fair      G     VS1      57.5    67  6381 NA    NA    NA   
## 10 24068  2    Premium   H     SI2      58.9    57 12210  8.09 NA     8.06
## # … with 13 more rows
## # ℹ Use `print(n = ...)` to see more rows
…
Figure 7.32: Zusammenhang der z- und x-Werte inklusive farbliche Markierung der Ausreißer.

Die restliche Analyse der x- und z-Variablen und der y- und z-Variablen wird als zusätzliche Übungsaufgabe gestellt.

7.6.2 Allgemeiner Überblick

In diesem Kapitel wollen wir kurz verschiedene Möglichkeiten vorstellen, wie man sich relativ schnell einen ersten groben Überblick über einen Datensatz verschaffen kann. Als Beispiel benutzten wir den Datensatz diamonds (Wickham 2016). Da diamonds ein Tibble ist, ist es leicht, erste Informationen zu erhalten (Für einen normalen Data Frame wäre str() die vielleicht bessere Lösung.):

diamonds

## # A tibble: 53,940 × 10
##    carat cut       color clarity depth table price     x     y     z
##    <dbl> <ord>     <ord> <ord>   <dbl> <dbl> <int> <dbl> <dbl> <dbl>
##  1  0.23 Ideal     E     SI2      61.5    55   326  3.95  3.98  2.43
##  2  0.21 Premium   E     SI1      59.8    61   326  3.89  3.84  2.31
##  3  0.23 Good      E     VS1      56.9    65   327  4.05  4.07  2.31
##  4  0.29 Premium   I     VS2      62.4    58   334  4.2   4.23  2.63
##  5  0.31 Good      J     SI2      63.3    58   335  4.34  4.35  2.75
##  6  0.24 Very Good J     VVS2     62.8    57   336  3.94  3.96  2.48
##  7  0.24 Very Good I     VVS1     62.3    57   336  3.95  3.98  2.47
##  8  0.26 Very Good H     SI1      61.9    55   337  4.07  4.11  2.53
##  9  0.22 Fair      E     VS2      65.1    61   337  3.87  3.78  2.49
## 10  0.23 Very Good H     VS1      59.4    61   338  4     4.05  2.39
## # … with 53,930 more rows
## # ℹ Use `print(n = ...)` to see more rows
…
