Submissions | Statistical Programming
…
            Statistical Programming

Submissions

Updates below are delayed and for reference only. The last update was generated on 2025-01-03 18:49:24.606703.

## # A tibble: 109 × 6
##    part  OK    id       iteration last_modified                 file            
##    <chr> <lgl> <chr>        <dbl> <chr>                         <chr>           
##  1 EX1   TRUE  30355303         1 Fri, 08 Nov 2024 22:25:30 GMT 30355303.zip    
##  2 EX1   TRUE  30360512         1 Thu, 07 Nov 2024 17:42:41 GMT 30360512.zip    
##  3 EX1   TRUE  30422287         2 Fri, 08 Nov 2024 22:09:32 GMT 30422287 (2).zip
##  4 EX1   TRUE  30422287         1 Fri, 08 Nov 2024 22:09:25 GMT 30422287.zip    
##  5 EX1   TRUE  30447121         1 Wed, 06 Nov 2024 21:30:14 GMT 30447121.zip    
##  6 EX1   TRUE  30447741         1 Wed, 06 Nov 2024 20:07:23 GMT 30447741 .zip   
##  7 EX1   TRUE  30467776         3 Wed, 06 Nov 2024 23:20:25 GMT 30467776 (3).zip
##  8 EX1   TRUE  30467776         2 Wed, 06 Nov 2024 23:20:00 GMT 30467776 (2).zip
##  9 EX1   TRUE  30467776         1 Wed, 06 Nov 2024 23:19:46 GMT 30467776.zip    
## 10 EX1   TRUE  30468108         3 Wed, 06 Nov 2024 23:02:18 GMT 30468108 (3).zip
## # ℹ 99 more rows
…
